{
  "name": "IITC plugin: specops.quest-banner-helper",
  "id": "iitc_plugin_ingressbannerhelper",
  "category": "Misc",
  "description": "SpecOps.quest banner site helper",
  "author": "sspp0000xx",
  "entry": "src/IngressBannerHelperPlugin.ts",
  "minimize": true,
  "version": "0.3.0"
}